,ChallengeName,PointWin,Points,PointMultiplier,ArtifactWin,WinArtifactLevel,ArtifactMultiplier
1,PointWin,TRUE,1000,1.2,FALSE,0,1
2,ArtifactWin,FALSE,0,,TRUE,250,1.5
3,BigPointWin,TRUE,2000,1.1,FALSE,0,1
